module cronjob-monitor

go 1.16

require (
	github.com/adhocore/gronx v0.2.6
	github.com/onsi/ginkgo v1.16.4
	github.com/onsi/gomega v1.15.0
	github.com/prometheus/client_golang v1.11.0
	k8s.io/api v0.22.4
	k8s.io/apimachinery v0.22.4
	k8s.io/client-go v0.22.1
	sigs.k8s.io/controller-runtime v0.10.0
)
